module gcp-secrets-ci

go 1.21

require google.golang.org/api v0.150.0

require (
	cloud.google.com/go/compute v1.23.3 // indirect
	cloud.google.com/go/compute/metadata v0.2.3 // indirect
	cloud.google.com/go/iam v1.1.5 // indirect
	cloud.google.com/go/secretmanager v1.11.4 // indirect
	github.com/golang/groupcache v0.0.0-20210331224755-41bb18bfe9da // indirect
	github.com/golang/protobuf v1.5.3 // indirect
	github.com/google/s2a-go v0.1.7 // indirect
	github.com/google/uuid v1.4.0 // indirect
	github.com/googleapis/enterprise-certificate-proxy v0.3.2 // indirect
	github.com/googleapis/gax-go/v2 v2.12.0 // indirect
	go.opencensus.io v0.24.0 // indirect
	golang.org/x/crypto v0.14.0 // indirect
	golang.org/x/net v0.17.0 // indirect
	golang.org/x/oauth2 v0.13.0 // indirect
	golang.org/x/sync v0.5.0 // indirect
	golang.org/x/sys v0.13.0 // indirect
	golang.org/x/text v0.13.0 // indirect
	golang.org/x/time v0.3.0 // indirect
	google.golang.org/appengine v1.6.7 // indirect
	google.golang.org/genproto v0.0.0-20231106174013-bbf56f31fb17 // indirect
	google.golang.org/genproto/googleapis/api v0.0.0-20231030173426-d783a09b4405 // indirect
	google.golang.org/genproto/googleapis/rpc v0.0.0-20231030173426-d783a09b4405 // indirect
	google.golang.org/grpc v1.59.0 // indirect
	google.golang.org/protobuf v1.31.0 // indirect
)
